Validating found git in: git
Using git 2.33.0 from git
> git rev-parse --git-dir
Open repository: /home/litxdev/Projets/rust/learning/ownership
> git status -z -u
> git symbolic-ref --short HEAD
> git for-each-ref --format=%(refname)%00%(upstream:short)%00%(objectname)%00%(upstream:track) refs/heads/master refs/remotes/master
> git for-each-ref --sort -committerdate --format %(refname) %(objectname) %(*objectname)
> git remote --verbose
> git config --get commit.template
> git check-ignore -v -z --stdin
> git check-ignore -v -z --stdin
> git show --textconv :target/CACHEDIR.TAG
> git ls-files --stage -- /home/litxdev/Projets/rust/learning/ownership/target/CACHEDIR.TAG
> git show --textconv :Cargo.lock
> git ls-files --stage -- /home/litxdev/Projets/rust/learning/ownership/Cargo.lock
> git show --textconv :src/main.rs
> git ls-files --stage -- /home/litxdev/Projets/rust/learning/ownership/src/main.rs
> git status -z -u
> git symbolic-ref --short HEAD
> git for-each-ref --format=%(refname)%00%(upstream:short)%00%(objectname)%00%(upstream:track) refs/heads/master refs/remotes/master
> git for-each-ref --sort -committerdate --format %(refname) %(objectname) %(*objectname)
> git remote --verbose
> git config --get commit.template
